…
``` r
acc_df = acc_df %>% 
  pivot_longer(
    activity_1:activity_1440,
    names_to = "activity_minute",
    values_to = "counts",
    names_prefix = "activity_",
  ) %>% 
  mutate(
    activity_minute = as.integer(activity_minute)
  )
acc_df
```

    ## # A tibble: 50,400 × 5
    ##     week day_id day    activity_minute counts
    ##    <int>  <int> <chr>            <int>  <dbl>
    ##  1     1      1 Friday               1   88.4
    ##  2     1      1 Friday               2   82.2
    ##  3     1      1 Friday               3   64.4
    ##  4     1      1 Friday               4   70.0
    ##  5     1      1 Friday               5   75.0
    ##  6     1      1 Friday               6   66.3
    ##  7     1      1 Friday               7   53.8
    ##  8     1      1 Friday               8   47.8
    ##  9     1      1 Friday               9   55.5
    ## 10     1      1 Friday              10   43.0
    ## # … with 50,390 more rows
…
``` r
acc_df
```

    ## # A tibble: 50,400 × 6
    ##     week day_id day    activity_minute counts weekday_or_weekend
    ##    <int>  <int> <chr>            <int>  <dbl> <chr>             
    ##  1     1      1 Friday               1   88.4 weekday           
    ##  2     1      1 Friday               2   82.2 weekday           
    ##  3     1      1 Friday               3   64.4 weekday           
    ##  4     1      1 Friday               4   70.0 weekday           
    ##  5     1      1 Friday               5   75.0 weekday           
    ##  6     1      1 Friday               6   66.3 weekday           
    ##  7     1      1 Friday               7   53.8 weekday           
    ##  8     1      1 Friday               8   47.8 weekday           
    ##  9     1      1 Friday               9   55.5 weekday           
    ## 10     1      1 Friday              10   43.0 weekday           
    ## # … with 50,390 more rows
…
``` r
ny_noaa = ny_noaa %>% 
  mutate(
    prcp = prcp/10,
    tmax = as.numeric(tmax)/10,
    tmin = as.numeric(tmin)/10
  )
ny_noaa
```

    ## # A tibble: 2,595,176 × 9
    ##    id          year  month day    prcp  snow  snwd  tmax  tmin
    ##    <chr>       <chr> <chr> <chr> <dbl> <int> <int> <dbl> <dbl>
    ##  1 US1NYAB0001 2007  11    01       NA    NA    NA    NA    NA
    ##  2 US1NYAB0001 2007  11    02       NA    NA    NA    NA    NA
    ##  3 US1NYAB0001 2007  11    03       NA    NA    NA    NA    NA
    ##  4 US1NYAB0001 2007  11    04       NA    NA    NA    NA    NA
    ##  5 US1NYAB0001 2007  11    05       NA    NA    NA    NA    NA
    ##  6 US1NYAB0001 2007  11    06       NA    NA    NA    NA    NA
    ##  7 US1NYAB0001 2007  11    07       NA    NA    NA    NA    NA
    ##  8 US1NYAB0001 2007  11    08       NA    NA    NA    NA    NA
    ##  9 US1NYAB0001 2007  11    09       NA    NA    NA    NA    NA
    ## 10 US1NYAB0001 2007  11    10       NA    NA    NA    NA    NA
    ## # … with 2,595,166 more rows
…
